%YAML 1.1
%TAG !u! tag:unity3d.com,2011:
--- !u!1 &4179717706043809571
GameObject:
  m_ObjectHideFlags: 0
  m_CorrespondingSourceObject: {fileID: 0}
  m_PrefabInstance: {fileID: 0}
  m_PrefabAsset: {fileID: 0}
  serializedVersion: 6
  m_Component:
  - component: {fileID: 4179717706043809566}
  - component: {fileID: 4179717706043809569}
  - component: {fileID: 4179717706043809568}
  m_Layer: 0
  m_Name: Luciole
  m_TagString: Firefly
  m_Icon: {fileID: 0}
  m_NavMeshLayer: 0
  m_StaticEditorFlags: 0
  m_IsActive: 1
--- !u!4 &4179717706043809566
Transform:
  m_ObjectHideFlags: 0
  m_CorrespondingSourceObject: {fileID: 0}
  m_PrefabInstance: {fileID: 0}
  m_PrefabAsset: {fileID: 0}
  m_GameObject: {fileID: 4179717706043809571}
  m_LocalRotation: {x: 0, y: 0, z: 0, w: 1}
  m_LocalPosition: {x: -2.79, y: 2.99, z: 0}
  m_LocalScale: {x: 1, y: 1, z: 1}
  m_Children:
  - {fileID: 8209710498491676502}
  m_Father: {fileID: 0}
  m_RootOrder: 0
  m_LocalEulerAnglesHint: {x: 0, y: 0, z: 0}
--- !u!212 &4179717706043809569
SpriteRenderer:
  m_ObjectHideFlags: 0
  m_CorrespondingSourceObject: {fileID: 0}
  m_PrefabInstance: {fileID: 0}
  m_PrefabAsset: {fileID: 0}
  m_GameObject: {fileID: 4179717706043809571}
  m_Enabled: 1
  m_CastShadows: 0
  m_ReceiveShadows: 0
  m_DynamicOccludee: 1
  m_MotionVectors: 1
  m_LightProbeUsage: 1
  m_ReflectionProbeUsage: 1
  m_RenderingLayerMask: 1
  m_RendererPriority: 0
  m_Materials:
  - {fileID: 10754, guid: 0000000000000000f000000000000000, type: 0}
  m_StaticBatchInfo:
    firstSubMesh: 0
    subMeshCount: 0
  m_StaticBatchRoot: {fileID: 0}
  m_ProbeAnchor: {fileID: 0}
  m_LightProbeVolumeOverride: {fileID: 0}
  m_ScaleInLightmap: 1
  m_PreserveUVs: 0
  m_IgnoreNormalsForChartDetection: 0
  m_ImportantGI: 0
  m_StitchLightmapSeams: 0
  m_SelectedEditorRenderState: 0
  m_MinimumChartSize: 4
  m_AutoUVMaxDistance: 0.5
  m_AutoUVMaxAngle: 89
  m_LightmapParameters: {fileID: 0}
  m_SortingLayerID: 0
  m_SortingLayer: 0
  m_SortingOrder: 1
  m_Sprite: {fileID: 21300020, guid: a905c91fd71415345bc9ff1be882c262, type: 3}
  m_Color: {r: 1, g: 1, b: 1, a: 1}
  m_FlipX: 0
  m_FlipY: 0
  m_DrawMode: 0
  m_Size: {x: 0.2, y: 0.2}
  m_AdaptiveModeThreshold: 0.5
  m_SpriteTileMode: 0
  m_WasSpriteAssigned: 1
  m_MaskInteraction: 0
  m_SpriteSortPoint: 0
--- !u!114 &4179717706043809568
MonoBehaviour:
  m_ObjectHideFlags: 0
  m_CorrespondingSourceObject: {fileID: 0}
  m_PrefabInstance: {fileID: 0}
  m_PrefabAsset: {fileID: 0}
  m_GameObject: {fileID: 4179717706043809571}
  m_Enabled: 1
  m_EditorHideFlags: 0
  m_Script: {fileID: 11500000, guid: ae66d9227ccbdf34fab0e334ec131e0f, type: 3}
  m_Name: 
  m_EditorClassIdentifier: 
  speed: 6
  radius: 1
--- !u!1001 &4392079360597510710
PrefabInstance:
  m_ObjectHideFlags: 0
  serializedVersion: 2
  m_Modification:
    m_TransformParent: {fileID: 4179717706043809566}
    m_Modifications:
    - target: {fileID: 5556611650298674530, guid: 1071ac6da126f6b4bac78ff8ee6c5c46,
        type: 3}
      propertyPath: m_Name
      value: Point Light
      objectReference: {fileID: 0}
    - target: {fileID: 5556611650298674528, guid: 1071ac6da126f6b4bac78ff8ee6c5c46,
        type: 3}
      propertyPath: m_LocalPosition.x
      value: 0
      objectReference: {fileID: 0}
    - target: {fileID: 5556611650298674528, guid: 1071ac6da126f6b4bac78ff8ee6c5c46,
        type: 3}
      propertyPath: m_LocalPosition.y
      value: 0
      objectReference: {fileID: 0}
    - target: {fileID: 5556611650298674528, guid: 1071ac6da126f6b4bac78ff8ee6c5c46,
        type: 3}
      propertyPath: m_LocalPosition.z
      value: -3
      objectReference: {fileID: 0}
    - target: {fileID: 5556611650298674528, guid: 1071ac6da126f6b4bac78ff8ee6c5c46,
        type: 3}
      propertyPath: m_LocalRotation.x
      value: -0
      objectReference: {fileID: 0}
    - target: {fileID: 5556611650298674528, guid: 1071ac6da126f6b4bac78ff8ee6c5c46,
        type: 3}
      propertyPath: m_LocalRotation.y
      value: -0
      objectReference: {fileID: 0}
    - target: {fileID: 5556611650298674528, guid: 1071ac6da126f6b4bac78ff8ee6c5c46,
        type: 3}
      propertyPath: m_LocalRotation.z
      value: -0
      objectReference: {fileID: 0}
    - target: {fileID: 5556611650298674528, guid: 1071ac6da126f6b4bac78ff8ee6c5c46,
        type: 3}
      propertyPath: m_LocalRotation.w
      value: 1
      objectReference: {fileID: 0}
    - target: {fileID: 5556611650298674528, guid: 1071ac6da126f6b4bac78ff8ee6c5c46,
        type: 3}
      propertyPath: m_RootOrder
      value: 0
      objectReference: {fileID: 0}
    - target: {fileID: 5556611650298674528, guid: 1071ac6da126f6b4bac78ff8ee6c5c46,
        type: 3}
      propertyPath: m_LocalEulerAnglesHint.x
      value: 0
      objectReference: {fileID: 0}
    - target: {fileID: 5556611650298674528, guid: 1071ac6da126f6b4bac78ff8ee6c5c46,
        type: 3}
      propertyPath: m_LocalEulerAnglesHint.y
      value: 0
      objectReference: {fileID: 0}
    - target: {fileID: 5556611650298674528, guid: 1071ac6da126f6b4bac78ff8ee6c5c46,
        type: 3}
      propertyPath: m_LocalEulerAnglesHint.z
      value: 0
      objectReference: {fileID: 0}
    - target: {fileID: 5556611650298674531, guid: 1071ac6da126f6b4bac78ff8ee6c5c46,
        type: 3}
      propertyPath: m_Color.r
      value: 0.8396226
      objectReference: {fileID: 0}
    - target: {fileID: 5556611650298674531, guid: 1071ac6da126f6b4bac78ff8ee6c5c46,
        type: 3}
      propertyPath: m_Color.g
      value: 0.6611943
      objectReference: {fileID: 0}
    - target: {fileID: 5556611650298674531, guid: 1071ac6da126f6b4bac78ff8ee6c5c46,
        type: 3}
      propertyPath: m_Color.b
      value: 0.1544589
      objectReference: {fileID: 0}
    m_RemovedComponents: []
  m_SourcePrefab: {fileID: 100100000, guid: 1071ac6da126f6b4bac78ff8ee6c5c46, type: 3}
--- !u!4 &8209710498491676502 stripped
Transform:
  m_CorrespondingSourceObject: {fileID: 5556611650298674528, guid: 1071ac6da126f6b4bac78ff8ee6c5c46,
    type: 3}
  m_PrefabInstance: {fileID: 4392079360597510710}
  m_PrefabAsset: {fileID: 0}
